<svg width="24" height="24" viewBox="0 0 24 24" fill="none" xmlns="http://www.w3.org/2000/svg">
<path d="M23.6044 14.0385C23.8464 13.9208 24 13.6754 24 13.4062V10.5938C24 10.3246 23.8464 10.0792 23.6044 9.96145L22.1795 9.26836C21.9419 8.38139 21.5888 7.53094 21.1263 6.732L21.6164 5.26172C21.7006 5.00906 21.6349 4.73048 21.4465 4.54219L19.4578 2.55352C19.2695 2.36517 18.991 2.2995 18.7383 2.38364L17.268 2.87377C16.4692 2.41134 15.6186 2.05814 14.7317 1.82053L14.0385 0.395578C13.9208 0.153563 13.6754 0 13.4062 0H10.5938C10.3246 0 10.0792 0.153563 9.96145 0.395578L9.26836 1.82048C8.38148 2.05809 7.53089 2.4113 6.732 2.87372L5.26172 2.38364C5.00906 2.29945 4.73048 2.36522 4.54219 2.55352L2.55352 4.54219C2.36517 4.73048 2.29945 5.00906 2.38364 5.26172L2.87377 6.732C2.4113 7.53089 2.05814 8.38139 1.82053 9.26836L0.395578 9.96145C0.153563 10.0792 0 10.3246 0 10.5938V13.4062C0 13.6754 0.153563 13.9208 0.395578 14.0385L1.82048 14.7316C2.05809 15.6185 2.4113 16.4691 2.87372 17.268L2.38364 18.7381C2.29941 18.9908 2.36517 19.2694 2.55347 19.4577L4.54219 21.4465C4.73053 21.6348 5.00906 21.7005 5.26172 21.6164L6.732 21.1263C7.53089 21.5887 8.38148 21.9419 9.26836 22.1795L9.96145 23.6044C10.0792 23.8464 10.3246 24 10.5938 24H13.4062C13.6754 24 13.9208 23.8464 14.0385 23.6044L14.7316 22.1796C15.8265 21.8866 16.8576 21.4207 17.8081 20.7912L20.8084 23.7915C21.083 24.0661 21.5282 24.0661 21.8028 23.7915L23.7915 21.8028C24.0661 21.5282 24.0661 21.083 23.7915 20.8084L20.7912 17.8081C21.4207 16.8576 21.8867 15.8265 22.1796 14.7316L23.6044 14.0385ZM21.3056 22.2999C20.8652 21.8596 14.5167 15.5111 14.3032 15.2976C14.0925 15.0869 13.7723 15.0322 13.5041 15.1598C12.1598 15.7989 10.5563 15.5281 9.51408 14.4859C8.72648 13.6983 8.37938 12.5903 8.53261 11.5157L9.51408 12.4972C9.64594 12.6291 9.82477 12.7032 10.0112 12.7032H12C12.3883 12.7032 12.7031 12.3884 12.7031 12V10.0113C12.7031 9.82486 12.629 9.64603 12.4972 9.51417L11.5157 8.5327C12.5902 8.37952 13.6983 8.72653 14.4859 9.51417C15.5281 10.5564 15.7989 12.1599 15.1597 13.5042C15.032 13.7729 15.0872 14.093 15.2976 14.3033C15.4808 14.4866 21.8326 20.8384 22.2999 21.3057L21.3056 22.2999ZM17.7115 14.7284L16.6235 13.6404C17.2543 11.8658 16.8229 9.86227 15.4803 8.51972C14.0183 7.05769 11.7725 6.67603 9.89198 7.57022C9.45337 7.77872 9.35381 8.35945 9.69675 8.70239L11.2969 10.3025V11.2969H10.3025L8.70239 9.69675C8.35973 9.35409 7.77891 9.45309 7.57022 9.89198C6.67608 11.7725 7.05764 14.0182 8.51972 15.4803C9.86231 16.8229 11.8658 17.2543 13.6404 16.6235L14.7284 17.7115C12.3459 18.849 9.43617 18.3855 7.52531 16.4747C5.058 14.0073 5.058 9.99272 7.52531 7.52536C9.99262 5.05805 14.0072 5.05805 16.4746 7.52536C18.3855 9.43617 18.849 12.3459 17.7115 14.7284ZM20.8925 14.0828C20.6683 15.0436 20.2923 15.9509 19.7732 16.7901L18.7541 15.771C19.5137 14.4094 19.8483 12.8307 19.6996 11.2649C19.5302 9.48117 18.738 7.79995 17.469 6.531C14.4534 3.51534 9.54661 3.51534 6.531 6.531C3.51539 9.54661 3.51539 14.4534 6.531 17.469C8.99653 19.9346 12.7785 20.4238 15.7711 18.7543L16.7902 19.7733C15.9509 20.2924 15.0436 20.6683 14.0829 20.8926C13.8766 20.9407 13.7031 21.0793 13.6104 21.2697L12.9664 22.5938H11.0337L10.3897 21.2697C10.297 21.0792 10.1235 20.9406 9.91716 20.8925C8.95312 20.6675 8.03475 20.2864 7.18753 19.7598C7.00992 19.6495 6.79247 19.6238 6.594 19.6899L5.22933 20.1449L3.85519 18.7706L4.31006 17.406C4.3762 17.2076 4.35061 16.99 4.24017 16.8125C3.71358 15.9653 3.33248 15.0469 3.10748 14.0828C3.05934 13.8766 2.92078 13.703 2.73033 13.6103L1.40625 12.9664V11.0337L2.73033 10.3897C2.92078 10.297 3.05939 10.1235 3.10748 9.9172C3.33248 8.95312 3.71362 8.03475 4.24017 7.18762C4.35056 7.01002 4.3762 6.79247 4.31006 6.59405L3.85514 5.22933L5.22928 3.85519L6.59395 4.31011C6.79238 4.37625 7.00987 4.35066 7.18748 4.24022C8.03466 3.71362 8.95308 3.33253 9.91711 3.10753C10.1234 3.05939 10.297 2.92083 10.3896 2.73038L11.0336 1.40625H12.9663L13.6103 2.73033C13.703 2.92078 13.8765 3.05939 14.0828 3.10748C15.0469 3.33248 15.9653 3.71358 16.8125 4.24017C16.9901 4.35061 17.2076 4.37616 17.406 4.31006L18.7707 3.85514L20.1448 5.22928L19.6899 6.594C19.6238 6.79242 19.6494 7.00997 19.7598 7.18758C20.2863 8.0347 20.6675 8.95308 20.8925 9.91716C20.9406 10.1234 21.0792 10.297 21.2696 10.3896L22.5938 11.0336V12.9663L21.2697 13.6103C21.0792 13.703 20.9407 13.8766 20.8925 14.0828Z" fill="#00AEF7"/>
</svg>
