<svg width="24" height="24" viewBox="0 0 24 24" fill="none" xmlns="http://www.w3.org/2000/svg">
<path d="M21.4142 0.640869H2.586C1.15997 0.640869 0 1.80084 0 3.22668V8.49866C0 9.9245 1.15997 11.0845 2.586 11.0845H21.4142C22.84 11.0845 24 9.9245 24 8.49866V3.22668C24 1.80084 22.84 0.640869 21.4142 0.640869ZM22.5938 8.49866C22.5938 9.14905 22.0646 9.67822 21.4142 9.67822H2.586C1.93542 9.67822 1.40625 9.14905 1.40625 8.49866V3.22668C1.40625 2.57629 1.93542 2.04712 2.586 2.04712H21.4142C22.0646 2.04712 22.5938 2.57629 22.5938 3.22668V8.49866Z" fill="#00AEF7"/>
<path d="M20.2844 3.65332H3.71558C3.32739 3.65332 3.01245 3.96808 3.01245 4.35645V7.3689C3.01245 7.75726 3.32739 8.07202 3.71558 8.07202H20.2844C20.6728 8.07202 20.9875 7.75726 20.9875 7.3689V4.35645C20.9875 3.96808 20.6728 3.65332 20.2844 3.65332ZM10.4438 5.05957H12.05V6.66577H10.4438V5.05957ZM9.03754 6.66577H7.43115V5.05957H9.03754V6.66577ZM4.4187 5.05957H6.02509V6.66577H4.4187V5.05957ZM19.5813 6.66577H13.4562V5.05957H19.5813V6.66577Z" fill="#00AEF7"/>
<path d="M21.4142 10H2.586C1.15997 10 0 11.16 0 12.5858V17.8578C0 19.2836 1.15997 20.4436 2.586 20.4436H21.4142C22.84 20.4436 24 19.2836 24 17.8578V12.5858C24 11.16 22.84 10 21.4142 10ZM22.5938 17.8578C22.5938 18.5082 22.0646 19.0374 21.4142 19.0374H2.586C1.93542 19.0374 1.40625 18.5082 1.40625 17.8578V12.5858C1.40625 11.9354 1.93542 11.4062 2.586 11.4062H21.4142C22.0646 11.4062 22.5938 11.9354 22.5938 12.5858V17.8578Z" fill="#00AEF7"/>
<path d="M20.2844 13.0125H3.71558C3.32739 13.0125 3.01245 13.3272 3.01245 13.7156V16.728C3.01245 17.1164 3.32739 17.4312 3.71558 17.4312H20.2844C20.6728 17.4312 20.9875 17.1164 20.9875 16.728V13.7156C20.9875 13.3272 20.6728 13.0125 20.2844 13.0125ZM10.4438 14.4187H12.05V16.0249H10.4438V14.4187ZM9.03754 16.0249H7.43115V14.4187H9.03754V16.0249ZM4.4187 14.4187H6.02509V16.0249H4.4187V14.4187ZM19.5813 16.0249H13.4562V14.4187H19.5813V16.0249Z" fill="#00AEF7"/>
</svg>
