<svg width="28" height="28" viewBox="0 0 28 28" fill="none" xmlns="http://www.w3.org/2000/svg">
<g clip-path="url(#clip0)">
<path d="M14.0225 19.8222L11.7028 17.5022L17.5024 11.7026L19.8221 14.0224L14.0225 19.8222Z" fill="#00AEF7"/>
<path d="M22.2003 28.0001L15.1824 20.9822L20.982 15.1826L27.9999 22.2005L22.2003 28.0001Z" fill="#00AEF7"/>
<path d="M1.92525 0L0.000732422 1.92452L2.96323 8.88003L5.54485 9.74092L9.74144 5.54433L8.88076 2.96271L1.92525 0Z" fill="#00AEF7"/>
<path d="M11.7025 15.1823L7.06287 10.5424L10.5425 7.06274L15.1824 11.7024L11.7025 15.1823Z" fill="#00AEF7"/>
<path d="M16.3426 10.5426L17.5026 9.38243L19.7979 11.6778L20.3294 11.1463C22.399 11.8827 24.7416 11.374 26.3172 9.79835C28.0328 8.08276 28.4836 5.45714 27.4385 3.26453L26.9391 2.21672L24.2374 4.92074H23.0753V3.75842L25.7791 1.05675L24.7313 0.557306C22.5389 -0.48773 19.9133 -0.0367755 18.1977 1.67882C16.622 3.25449 16.1134 5.59685 16.8495 7.66641L15.1581 9.35808L16.3426 10.5426Z" fill="#00AEF7"/>
<path d="M9.38298 17.5025L10.5432 16.3423L9.35884 15.158L7.67187 16.8447C5.60231 16.1084 3.25974 16.617 1.68406 18.1929C-0.0189254 19.8959 -0.464112 22.5147 0.576865 24.71L1.07588 25.7606L3.76367 23.075H4.9215V24.2326L2.23457 26.9217L3.28644 27.4194C5.48161 28.4606 8.10061 28.0154 9.8036 26.3122C11.3795 24.7365 11.8879 22.3942 11.1516 20.3246L11.6783 19.7976L9.38298 17.5025Z" fill="#00AEF7"/>
</g>
<defs>
<clipPath id="clip0">
<rect width="28" height="28" fill="white"/>
</clipPath>
</defs>
</svg>
