<svg width="28" height="28" viewBox="0 0 28 28" fill="none" xmlns="http://www.w3.org/2000/svg">
<path d="M23.0234 8.25781H26.3047V21.3828H23.0234V8.25781Z" fill="#00AEF7"/>
<path d="M0 23.8438C0 26.1052 1.89484 28 4.15625 28H4.97656V24.6641H6.61719V28H8.25781V24.6641H9.89844V28H18.1016V24.6641H19.7422V28H21.3828V24.6641H23.0234V28H23.8438C26.1052 28 28 26.1052 28 23.8438V23.0234H0V23.8438Z" fill="#00AEF7"/>
<path d="M1.69531 8.25781H4.97656V21.3828H1.69531V8.25781Z" fill="#00AEF7"/>
<path d="M14 9.89844C12.9306 9.89844 12.0182 10.5842 11.6792 11.5391H16.3208C15.9818 10.5842 15.0694 9.89844 14 9.89844Z" fill="#00AEF7"/>
<path d="M14 4.97656C13.5473 4.97656 13.1797 5.34421 13.1797 5.79688C13.1797 6.24954 13.5473 6.61719 14 6.61719C14.4527 6.61719 14.8203 6.24954 14.8203 5.79688C14.8203 5.34421 14.4527 4.97656 14 4.97656Z" fill="#00AEF7"/>
<path d="M9.89844 16.4609H18.1016V18.1016H9.89844V16.4609Z" fill="#00AEF7"/>
<path d="M6.61719 21.3828H21.3828V0H6.61719V21.3828ZM9.89844 12.3594C9.89844 10.098 11.7386 8.25781 14 8.25781C12.6431 8.25781 11.5391 7.15381 11.5391 5.79688C11.5391 4.43994 12.6431 3.33594 14 3.33594C15.3569 3.33594 16.4609 4.43994 16.4609 5.79688C16.4609 7.15381 15.3569 8.25781 14 8.25781C16.2614 8.25781 18.1016 10.098 18.1016 12.3594V13.1797H9.89844V12.3594ZM8.25781 14.8203H19.7422V19.7422H8.25781V14.8203Z" fill="#00AEF7"/>
</svg>
