<svg width="10" height="16" viewBox="0 0 10 16" fill="none" xmlns="http://www.w3.org/2000/svg">
<path d="M8 2L2 8L8 14" stroke="#00AEF7" stroke-width="3" stroke-linecap="round" stroke-linejoin="round"/>
</svg>
