<svg id="Слой_1" data-name="Слой 1" xmlns="http://www.w3.org/2000/svg" viewBox="0 0 150 40">
  <title>логотипы ssl целые</title>
  <g>
    <path d="M61.77,20.29a6.15,6.15,0,0,0-3-.72,8.2,8.2,0,0,0-5.36,1.95l1-6.22H50.26l-2.9,16.94h4.13L53.08,23a6.22,6.22,0,0,1,3.69-1.44,2.59,2.59,0,0,1,1.74.58c.72.65.65,1.66.44,2.82l-1.24,7.24h4.13l1.38-8.11c.14-1.09.43-2.75-1.45-3.84M72.7,19.5c-4.71,0-6.3,2.1-7.17,3.33l1,.36a6.41,6.41,0,0,1,4.71-1.81c1.16,0,2.89.29,3.4,1.59a2.93,2.93,0,0,1,.15,1.59h.07l-.65,3.84h-.08l-.21,1.37a7.28,7.28,0,0,1-3.4.87c-2.1,0-2.68-1.15-2.47-2.17.29-1.59,2-2.31,3.84-2.31a10.21,10.21,0,0,1,1.52.14l.29-1.74a12.51,12.51,0,0,0-2.53-.29c-3.69,0-7,1.6-7.39,4.42-.36,2.17,1.38,3.91,4.56,3.91a8.86,8.86,0,0,0,5.5-1.74l-.21,1.38h4l1.23-7.39a3.91,3.91,0,0,0-.94-4A8.38,8.38,0,0,0,72.7,19.5m36,11.72a2.29,2.29,0,0,1-2.1-1.08,2.55,2.55,0,0,1-.14-2l.94-5.57h4.49l.43-2.61h-4.49l.58-3.33h-4.12L103.75,20H99.4l-3.76,6.16L95,27.31c-.22-.65-.22-.79-.44-1.37L92.38,20H91l-5.36,7.24c-.14-.58-.14-.72-.29-1.3L83.77,20H79.5l3.76,12.38h1.52l5.36-7.17,3,7.17h1.52L101,22.61h2.31l-1,6.08a3,3,0,0,0,.8,3,5.3,5.3,0,0,0,3.4,1,9.8,9.8,0,0,0,4.27-1l-.36-.8a5.59,5.59,0,0,1-1.67.29m8.54-6.66a4.07,4.07,0,0,0-.29,1.16,3.12,3.12,0,0,0-.07.73h11c.22-1.38.58-3.62-1.37-5.36-1.67-1.52-4.13-1.67-5.51-1.67-5.57,0-9,2.9-9.69,6.52s1.88,6.8,7.52,6.8c5.43,0,7.17-2.53,8-3.83l-.94-.37a7.49,7.49,0,0,1-5.5,2.18c-4.2,0-4.78-2.54-4.85-3.77a3.26,3.26,0,0,1,.07-1.16,5.11,5.11,0,0,1,.36-1.23c.65-1.37,1.52-3.11,4.49-3.11s3.11,2,3.11,3.11ZM44,16.67H39.91l-2,12a3,3,0,0,0,.8,3,5.33,5.33,0,0,0,3.4,1,9.72,9.72,0,0,0,4.27-1l-.36-.8a5.14,5.14,0,0,1-1.59.22,2.28,2.28,0,0,1-2.1-1.09,2.55,2.55,0,0,1-.15-1.95l.94-5.57h3.26l.44-2.61H43.46Z" style="fill: #0650a0"/>
    <path d="M16.61,7.44A14.11,14.11,0,1,0,30.72,21.55,14.1,14.1,0,0,0,16.61,7.44m0,25.42A11.31,11.31,0,1,1,27.93,21.55,11.32,11.32,0,0,1,16.61,32.86M18,14.66H14.27L12.45,25.45a2.71,2.71,0,0,0,.72,2.73,4.64,4.64,0,0,0,3,.91,8.72,8.72,0,0,0,3.84-.91l-.33-.65a4.7,4.7,0,0,1-1.43.2,2,2,0,0,1-1.88-1A2.35,2.35,0,0,1,16.29,25l.84-5h3l.39-2.34H17.46Z" style="fill: #eb234e"/>
    <path d="M130,17.83h-1v2.68h-.86V17.83h-1v-.65H130v.65Zm4,2.68h-.87V18.27l-.58,1.44h-.58l-.58-1.44v2.24h-.79V17.18h1l.72,1.67.73-1.67h1l-.07,3.33Z" style="fill: #0650a0"/>
  </g>
</svg>