<svg width="24" height="24" viewBox="0 0 24 24" fill="none" xmlns="http://www.w3.org/2000/svg">
<path d="M20.486 20.4846C22.7521 18.2183 24 15.2049 24 12C24 8.7951 22.752 5.78192 20.4858 3.51544C20.4857 3.51526 20.4855 3.51489 20.4853 3.51471C20.4851 3.51453 20.4849 3.51434 20.4847 3.51416C18.2183 1.24805 15.2051 0 12 0C8.79474 0 5.78119 1.24823 3.51471 3.51471C1.24823 5.78119 0 8.79474 0 12C0 15.2049 1.24805 18.2181 3.51398 20.4846C3.51434 20.4849 3.51434 20.4851 3.51471 20.4853C3.51489 20.4855 3.51508 20.4857 3.51526 20.4858C5.78174 22.752 8.79492 24 12 24C15.2051 24 18.2183 22.752 20.4847 20.4858C20.4849 20.4857 20.4851 20.4855 20.4853 20.4853C20.4857 20.4851 20.4857 20.4849 20.486 20.4846ZM19.9678 18.9734L18.299 17.3046C19.5518 15.822 20.2344 13.9634 20.2344 12C20.2344 10.0366 19.5518 8.17804 18.299 6.69543L19.9678 5.02661C21.6019 6.89117 22.5938 9.33179 22.5938 12C22.5938 14.6682 21.6019 17.1088 19.9678 18.9734ZM18.9736 4.03217L17.3046 5.70099C15.822 4.44818 13.9634 3.76556 12 3.76556C10.0366 3.76556 8.17804 4.44818 6.69543 5.70099L5.02661 4.03217C6.89117 2.39813 9.33179 1.40625 12 1.40625C14.6682 1.40625 17.1088 2.39813 18.9736 4.03217ZM4.03217 5.02661L5.70099 6.69543C4.44818 8.17804 3.76575 10.0366 3.76575 12C3.76575 13.9634 4.44818 15.822 5.70099 17.3046L4.03217 18.9734C2.39813 17.1088 1.40625 14.6682 1.40625 12C1.40625 9.33179 2.39813 6.89117 4.03217 5.02661ZM5.02643 19.9678L7.17169 17.8226C7.44635 17.5481 7.44635 17.103 7.17169 16.8283C5.88208 15.5385 5.172 13.8237 5.172 12C5.172 10.1761 5.88208 8.46149 7.17188 7.17169C8.46149 5.88208 10.1763 5.17181 12 5.17181C13.8237 5.17181 15.5385 5.88208 16.8283 7.17188C16.8285 7.17206 16.8285 7.17206 16.8287 7.17224C17.8909 8.23462 18.5594 9.58539 18.7623 11.048C16.7884 10.4875 12.891 9.414 12 9.414C10.5742 9.414 9.41418 10.5742 9.41418 12C9.41418 13.4258 10.5742 14.586 12 14.586C12.891 14.586 16.7882 13.5125 18.7623 12.952C18.5594 14.4148 17.8907 15.7657 16.8283 16.8283C16.5536 17.1028 16.5536 17.5481 16.8283 17.8226L18.9736 19.9678C17.1088 21.6019 14.6682 22.5938 12 22.5938C9.33179 22.5938 6.89117 21.6019 5.02643 19.9678ZM16.9402 12C14.7242 12.6081 12.4706 13.1797 12 13.1797C11.3496 13.1797 10.8204 12.6506 10.8204 12C10.8204 11.3494 11.3496 10.8203 12 10.8203C12.4706 10.8203 14.7242 11.3921 16.9402 12Z" fill="#00AEF7"/>
<path d="M13.5599 16.6223H10.4403C10.0519 16.6223 9.73718 16.9371 9.73718 17.3254C9.73718 17.7138 10.0519 18.0286 10.4403 18.0286H13.5599C13.9481 18.0286 14.263 17.7138 14.263 17.3254C14.263 16.9371 13.9481 16.6223 13.5599 16.6223Z" fill="#00AEF7"/>
</svg>
